…
It makes sense to remove stop words (common words like "a", "the", "is", etc) so that they don't swamp the analysis.

``` r
data("stop_words")
tidy_ref <- anti_join(tidy_ref, stop_words)
```

We can now make a count of the most frequent words in the dataset.

``` r
count(tidy_ref, word, sort = TRUE) 
```

    ## # A tibble: 114,363 × 2
    ##           word     n
    ##          <chr> <int>
    ## 1     research 45483
    ## 2       impact 20389
    ## 3           uk 15071
    ## 4       public 14530
    ## 5       policy 14395
    ## 6         2012 13719
    ## 7  development 12508
    ## 8         2013 11784
    ## 9         2011 11523
    ## 10    national 10996
    ## # ... with 114,353 more rows

The results are entirely unsurprising! We can drill down further by using positive and negative sentiment labels; the example below uses the Canadian National Research Council (NRC) crowdsourced lexicon, obtained through the **tidytext** package.

``` r
# Positive sentiment
nrcpos <- filter(sentiments, lexicon == "nrc", sentiment == "positive")
tidy_ref %>%
  semi_join(nrcpos) %>%
  count(word, sort = TRUE)
```

    ## # A tibble: 1,948 × 2
    ##             word     n
    ##            <chr> <int>
    ## 1         public 14530
    ## 2      including  8695
    ## 3     university  7734
    ## 4       practice  7007
    ## 5     technology  5040
    ## 6      community  4950
    ## 7          study  4686
    ## 8     management  4641
    ## 9          major  4526
    ## 10 understanding  4489
    ## # ... with 1,938 more rows

``` r
# Negative sentiment
nrcneg <- filter(sentiments, lexicon == "nrc", sentiment == "negative")
tidy_ref %>%
  semi_join(nrcneg) %>%
  count(word, sort = TRUE)
```

    ## # A tibble: 2,287 × 2
    ##            word     n
    ##           <chr> <int>
    ## 1    government  7243
    ## 2          risk  3653
    ## 3     influence  2236
    ## 4       disease  2025
    ## 5        cancer  1951
    ## 6       subject  1157
    ## 7  intervention  1144
    ## 8        scheme   942
    ## 9        stroke   918
    ## 10   regulatory   876
    ## # ... with 2,277 more rows
…
